…
Set up an rsample split tibble of 20 fold CV with 100 repeats.

``` r
set.seed(4622)
rs_obj <- vfold_cv(attrition, v = 20, repeats = 100)
rs_obj
#> #  20-fold cross-validation repeated 100 times 
#> # A tibble: 2,000 x 3
#>    splits       id        id2   
#>    <list>       <chr>     <chr> 
#>  1 <S3: rsplit> Repeat001 Fold01
#>  2 <S3: rsplit> Repeat001 Fold02
#>  3 <S3: rsplit> Repeat001 Fold03
#>  4 <S3: rsplit> Repeat001 Fold04
#>  5 <S3: rsplit> Repeat001 Fold05
#>  6 <S3: rsplit> Repeat001 Fold06
#>  7 <S3: rsplit> Repeat001 Fold07
#>  8 <S3: rsplit> Repeat001 Fold08
#>  9 <S3: rsplit> Repeat001 Fold09
#> 10 <S3: rsplit> Repeat001 Fold10
#> # ... with 1,990 more rows
```
…
tic()
rs_obj$results <- future_map(rs_obj$splits, holdout_results, mod_form)
toc()
#> 14.929 sec elapsed
```

If you’re curious, the resulting object looks like this.

``` r
rs_obj
#> #  20-fold cross-validation repeated 100 times 
#> # A tibble: 2,000 x 4
#>    splits       id        id2    results               
#>    <list>       <chr>     <chr>  <list>                
#>  1 <S3: rsplit> Repeat001 Fold01 <data.frame [74 × 35]>
#>  2 <S3: rsplit> Repeat001 Fold02 <data.frame [74 × 35]>
#>  3 <S3: rsplit> Repeat001 Fold03 <data.frame [74 × 35]>
#>  4 <S3: rsplit> Repeat001 Fold04 <data.frame [74 × 35]>
#>  5 <S3: rsplit> Repeat001 Fold05 <data.frame [74 × 35]>
#>  6 <S3: rsplit> Repeat001 Fold06 <data.frame [74 × 35]>
#>  7 <S3: rsplit> Repeat001 Fold07 <data.frame [74 × 35]>
#>  8 <S3: rsplit> Repeat001 Fold08 <data.frame [74 × 35]>
#>  9 <S3: rsplit> Repeat001 Fold09 <data.frame [74 × 35]>
#> 10 <S3: rsplit> Repeat001 Fold10 <data.frame [74 × 35]>
#> # ... with 1,990 more rows
```
…
