Apply Mapping Functions in Parallel using Futures • furrr
…
The vignette example runs pretty quickly on its own, so to make things more…interesting we are going to use 20 fold CV with 100 repeats.

library(rsample)
library(modeldata)
data("attrition")

Set up an rsample split tibble of 20 fold CV with 100 repeats.

set.seed(4622)

folds <- vfold_cv(attrition, v = 20, repeats = 100)

folds
#> #  20-fold cross-validation repeated 100 times 
#> # A tibble: 2,000 x 3
#>    splits            id        id2   
#>    <list>            <chr>     <chr> 
#>  1 <split [1.4K/74]> Repeat001 Fold01
#>  2 <split [1.4K/74]> Repeat001 Fold02
#>  3 <split [1.4K/74]> Repeat001 Fold03
#>  4 <split [1.4K/74]> Repeat001 Fold04
#>  5 <split [1.4K/74]> Repeat001 Fold05
#>  6 <split [1.4K/74]> Repeat001 Fold06
#>  7 <split [1.4K/74]> Repeat001 Fold07
#>  8 <split [1.4K/74]> Repeat001 Fold08
#>  9 <split [1.4K/74]> Repeat001 Fold09
#> 10 <split [1.4K/74]> Repeat001 Fold10
#> # … with 1,990 more rows
…
