Apply Mapping Functions in Parallel using Futures • furrr
…
Set up an rsample split tibble of 20 fold CV with 100 repeats.

set.seed(4622)
rs_obj <- vfold_cv(attrition, v = 20, repeats = 100)
rs_obj
#> #  20-fold cross-validation repeated 100 times 
#> # A tibble: 2,000 x 3
#>    splits       id        id2   
#>    <list>       <chr>     <chr> 
#>  1 <S3: rsplit> Repeat001 Fold01
#>  2 <S3: rsplit> Repeat001 Fold02
#>  3 <S3: rsplit> Repeat001 Fold03
#>  4 <S3: rsplit> Repeat001 Fold04
#>  5 <S3: rsplit> Repeat001 Fold05
#>  6 <S3: rsplit> Repeat001 Fold06
#>  7 <S3: rsplit> Repeat001 Fold07
#>  8 <S3: rsplit> Repeat001 Fold08
#>  9 <S3: rsplit> Repeat001 Fold09
#> 10 <S3: rsplit> Repeat001 Fold10
#> # ... with 1,990 more rows
…
